(x,z,y) Attention


Top
0.651
3.202
-0.973

1
1.202
0

1
-1.769
0

0.364
-5.886
0

0.365
-6.690
-0.010

Bottom
0.651
3.202
-1.881

1
1.202
-2.100

1
-1.769
-2.100

0.365
-5.881
-0.884

0.365
-6.690
-0.300


Ailes
-6.976
0.204
0.091

-5.333
0.764
0.091

-2.667
1
0.091

0
1
0.091


-6.976
-1.562
0.091

-5.333
-1.562
0.091

-2.667
-1.562
0.091

0
-1.562
0.091


Aileron
0
-5.411
0.121

1
-5.411
0.121

2.9
-5.411
0.121

3.5
-6.411
0.121


0
-6.836
0.121

1
-6.836
0.121

2.9
-6.836
0.121

3.5
-6.836
0.121

Aileron Debout
0.184
-4.997
-0.026

0.184
-6.553
1.626

0.184
-7.514
1.751

-0.184
-6.728
-0.026









